<mxfile host="app.diagrams.net" modified="2021-04-23T11:00:59.198Z" agent="5.0 (Windows NT 10.0; Win64; x64) AppleWebKit/537.36 (KHTML, like Gecko) Chrome/90.0.4430.72 Safari/537.36" etag="BElH4PRJo2hoEwH9x-O_" version="14.6.1" type="gitlab">
  <diagram name="Quy trinh chung" id="e7e014a7-5840-1c2e-5031-d8a46d1fe8dd">
    <mxGraphModel dx="1102" dy="2234" grid="1" gridSize="10" guides="1" tooltips="1" connect="1" arrows="1" fold="1" page="1" pageScale="1" pageWidth="1169" pageHeight="826" background="#ffffff" math="0" shadow="0">
      <root>
        <mxCell id="0" />
        <mxCell id="1" parent="0" />
        <mxCell id="VcqM1lQKu44zjIpKowZe-6" style="edgeStyle=orthogonalEdgeStyle;rounded=0;orthogonalLoop=1;jettySize=auto;html=1;entryX=0;entryY=0.5;entryDx=0;entryDy=0;" edge="1" parent="1" source="VR9klW2G0f0JMLmI4JQ7-20" target="VcqM1lQKu44zjIpKowZe-5">
          <mxGeometry relative="1" as="geometry">
            <Array as="points">
              <mxPoint x="190" y="-510" />
              <mxPoint x="190" y="-900" />
            </Array>
          </mxGeometry>
        </mxCell>
        <mxCell id="VR9klW2G0f0JMLmI4JQ7-20" value="Module giải ngân" style="rounded=1;whiteSpace=wrap;html=1;" parent="1" vertex="1">
          <mxGeometry x="30" y="-540" width="120" height="60" as="geometry" />
        </mxCell>
        <mxCell id="VR9klW2G0f0JMLmI4JQ7-21" value="Giải ngân lô tín chấp" style="rounded=1;whiteSpace=wrap;html=1;" parent="1" vertex="1">
          <mxGeometry x="250" y="-780" width="120" height="60" as="geometry" />
        </mxCell>
        <mxCell id="JMjV8X4-DGBND67015FD-3" style="edgeStyle=orthogonalEdgeStyle;rounded=0;orthogonalLoop=1;jettySize=auto;html=1;entryX=0;entryY=0.633;entryDx=0;entryDy=0;entryPerimeter=0;" parent="1" source="VR9klW2G0f0JMLmI4JQ7-22" target="JMjV8X4-DGBND67015FD-2" edge="1">
          <mxGeometry relative="1" as="geometry">
            <Array as="points">
              <mxPoint x="370" y="-190" />
              <mxPoint x="370" y="-405" />
              <mxPoint x="650" y="-405" />
              <mxPoint x="650" y="-375" />
            </Array>
          </mxGeometry>
        </mxCell>
        <mxCell id="JMjV8X4-DGBND67015FD-4" style="edgeStyle=orthogonalEdgeStyle;rounded=0;orthogonalLoop=1;jettySize=auto;html=1;entryX=0;entryY=0.5;entryDx=0;entryDy=0;" parent="1" source="VR9klW2G0f0JMLmI4JQ7-22" target="JMjV8X4-DGBND67015FD-1" edge="1">
          <mxGeometry relative="1" as="geometry">
            <Array as="points">
              <mxPoint x="370" y="-190" />
              <mxPoint x="370" y="100" />
            </Array>
          </mxGeometry>
        </mxCell>
        <mxCell id="VR9klW2G0f0JMLmI4JQ7-22" value="Phân công công việc hạch toán" style="rounded=1;whiteSpace=wrap;html=1;" parent="1" vertex="1">
          <mxGeometry x="230" y="-220" width="120" height="60" as="geometry" />
        </mxCell>
        <mxCell id="VR9klW2G0f0JMLmI4JQ7-23" value="Tra cứu" style="rounded=1;whiteSpace=wrap;html=1;" parent="1" vertex="1">
          <mxGeometry x="250" y="-660" width="120" height="60" as="geometry" />
        </mxCell>
        <mxCell id="VcqM1lQKu44zjIpKowZe-3" style="edgeStyle=orthogonalEdgeStyle;rounded=0;orthogonalLoop=1;jettySize=auto;html=1;" edge="1" parent="1" source="VR9klW2G0f0JMLmI4JQ7-24" target="VcqM1lQKu44zjIpKowZe-1">
          <mxGeometry relative="1" as="geometry">
            <Array as="points">
              <mxPoint x="590" y="-510" />
              <mxPoint x="590" y="-550" />
            </Array>
          </mxGeometry>
        </mxCell>
        <mxCell id="VcqM1lQKu44zjIpKowZe-4" style="edgeStyle=orthogonalEdgeStyle;rounded=0;orthogonalLoop=1;jettySize=auto;html=1;" edge="1" parent="1" source="VR9klW2G0f0JMLmI4JQ7-24" target="VcqM1lQKu44zjIpKowZe-2">
          <mxGeometry relative="1" as="geometry">
            <Array as="points">
              <mxPoint x="590" y="-510" />
              <mxPoint x="590" y="-470" />
            </Array>
          </mxGeometry>
        </mxCell>
        <mxCell id="VR9klW2G0f0JMLmI4JQ7-24" value="Báo cáo" style="rounded=1;whiteSpace=wrap;html=1;" parent="1" vertex="1">
          <mxGeometry x="250" y="-540" width="120" height="60" as="geometry" />
        </mxCell>
        <mxCell id="VR9klW2G0f0JMLmI4JQ7-25" value="Hạch toán LD" style="rounded=1;whiteSpace=wrap;html=1;" parent="1" vertex="1">
          <mxGeometry x="460" y="-360" width="120" height="60" as="geometry" />
        </mxCell>
        <mxCell id="VR9klW2G0f0JMLmI4JQ7-26" value="Hạch toán MG" style="rounded=1;whiteSpace=wrap;html=1;" parent="1" vertex="1">
          <mxGeometry x="460" y="-270" width="120" height="60" as="geometry" />
        </mxCell>
        <mxCell id="VR9klW2G0f0JMLmI4JQ7-27" value="Hạch toán Bảo lãnh" style="rounded=1;whiteSpace=wrap;html=1;" parent="1" vertex="1">
          <mxGeometry x="680" y="-310" width="120" height="60" as="geometry" />
        </mxCell>
        <mxCell id="VR9klW2G0f0JMLmI4JQ7-28" value="Hạch toán Thấu chi (Cá nhân)" style="rounded=1;whiteSpace=wrap;html=1;" parent="1" vertex="1">
          <mxGeometry x="460" y="-90" width="120" height="60" as="geometry" />
        </mxCell>
        <mxCell id="VR9klW2G0f0JMLmI4JQ7-29" value="Hạch toán Thẻ (Cá nhân)" style="rounded=1;whiteSpace=wrap;html=1;" parent="1" vertex="1">
          <mxGeometry x="460" y="-180" width="120" height="60" as="geometry" />
        </mxCell>
        <mxCell id="VR9klW2G0f0JMLmI4JQ7-31" value="Hạch toán HM (Doanh nghiệp)" style="rounded=1;whiteSpace=wrap;html=1;" parent="1" vertex="1">
          <mxGeometry x="680" y="-210" width="120" height="60" as="geometry" />
        </mxCell>
        <mxCell id="VR9klW2G0f0JMLmI4JQ7-32" value="Hạch toán Thẻ tín dụng&amp;nbsp;(Doanh nghiệp)" style="rounded=1;whiteSpace=wrap;html=1;" parent="1" vertex="1">
          <mxGeometry x="680" y="-110" width="120" height="60" as="geometry" />
        </mxCell>
        <mxCell id="VR9klW2G0f0JMLmI4JQ7-33" value="Hạch toán Thấu chi (Doanh nghiệp)" style="rounded=1;whiteSpace=wrap;html=1;" parent="1" vertex="1">
          <mxGeometry x="680" y="-20" width="120" height="60" as="geometry" />
        </mxCell>
        <mxCell id="VR9klW2G0f0JMLmI4JQ7-34" value="Quản lý lô tín chấp" style="rounded=1;whiteSpace=wrap;html=1;" parent="1" vertex="1">
          <mxGeometry x="465" y="-820" width="120" height="60" as="geometry" />
        </mxCell>
        <mxCell id="VcqM1lQKu44zjIpKowZe-15" style="edgeStyle=orthogonalEdgeStyle;rounded=0;orthogonalLoop=1;jettySize=auto;html=1;entryX=0;entryY=0.5;entryDx=0;entryDy=0;" edge="1" parent="1" source="VR9klW2G0f0JMLmI4JQ7-35" target="VcqM1lQKu44zjIpKowZe-11">
          <mxGeometry relative="1" as="geometry" />
        </mxCell>
        <mxCell id="VcqM1lQKu44zjIpKowZe-16" style="edgeStyle=orthogonalEdgeStyle;rounded=0;orthogonalLoop=1;jettySize=auto;html=1;entryX=0;entryY=0.5;entryDx=0;entryDy=0;" edge="1" parent="1" source="VR9klW2G0f0JMLmI4JQ7-35" target="VcqM1lQKu44zjIpKowZe-12">
          <mxGeometry relative="1" as="geometry" />
        </mxCell>
        <mxCell id="VcqM1lQKu44zjIpKowZe-17" style="edgeStyle=orthogonalEdgeStyle;rounded=0;orthogonalLoop=1;jettySize=auto;html=1;entryX=0;entryY=0.5;entryDx=0;entryDy=0;" edge="1" parent="1" source="VR9klW2G0f0JMLmI4JQ7-35" target="VcqM1lQKu44zjIpKowZe-13">
          <mxGeometry relative="1" as="geometry" />
        </mxCell>
        <mxCell id="VcqM1lQKu44zjIpKowZe-18" style="edgeStyle=orthogonalEdgeStyle;rounded=0;orthogonalLoop=1;jettySize=auto;html=1;entryX=0;entryY=0.5;entryDx=0;entryDy=0;" edge="1" parent="1" source="VR9klW2G0f0JMLmI4JQ7-35" target="VcqM1lQKu44zjIpKowZe-14">
          <mxGeometry relative="1" as="geometry" />
        </mxCell>
        <mxCell id="VR9klW2G0f0JMLmI4JQ7-35" value="Hạch toán từng &lt;br&gt;dòng tín chấp" style="rounded=1;whiteSpace=wrap;html=1;" parent="1" vertex="1">
          <mxGeometry x="465" y="-750" width="120" height="60" as="geometry" />
        </mxCell>
        <mxCell id="VR9klW2G0f0JMLmI4JQ7-36" value="Báo cáo tổng hạch toán" style="rounded=1;whiteSpace=wrap;html=1;" parent="1" vertex="1">
          <mxGeometry x="460" y="-580" width="120" height="60" as="geometry" />
        </mxCell>
        <mxCell id="VR9klW2G0f0JMLmI4JQ7-37" value="Báo cáo thời gian xử lý theo cán bộ" style="rounded=1;whiteSpace=wrap;html=1;" parent="1" vertex="1">
          <mxGeometry x="460" y="-490" width="120" height="60" as="geometry" />
        </mxCell>
        <mxCell id="VR9klW2G0f0JMLmI4JQ7-38" value="Tra cứu hạch toán" style="rounded=1;whiteSpace=wrap;html=1;" parent="1" vertex="1">
          <mxGeometry x="460" y="-660" width="120" height="60" as="geometry" />
        </mxCell>
        <mxCell id="VR9klW2G0f0JMLmI4JQ7-39" value="" style="endArrow=classic;html=1;exitX=1;exitY=0.5;exitDx=0;exitDy=0;entryX=0;entryY=0.5;entryDx=0;entryDy=0;" parent="1" source="VR9klW2G0f0JMLmI4JQ7-20" target="VR9klW2G0f0JMLmI4JQ7-21" edge="1">
          <mxGeometry width="50" height="50" relative="1" as="geometry">
            <mxPoint x="560" y="-460" as="sourcePoint" />
            <mxPoint x="610" y="-510" as="targetPoint" />
            <Array as="points">
              <mxPoint x="190" y="-510" />
              <mxPoint x="190" y="-750" />
            </Array>
          </mxGeometry>
        </mxCell>
        <mxCell id="VR9klW2G0f0JMLmI4JQ7-40" value="" style="endArrow=classic;html=1;exitX=1;exitY=0.5;exitDx=0;exitDy=0;entryX=0;entryY=0.5;entryDx=0;entryDy=0;" parent="1" source="VR9klW2G0f0JMLmI4JQ7-21" target="VR9klW2G0f0JMLmI4JQ7-34" edge="1">
          <mxGeometry width="50" height="50" relative="1" as="geometry">
            <mxPoint x="560" y="-460" as="sourcePoint" />
            <mxPoint x="610" y="-510" as="targetPoint" />
            <Array as="points">
              <mxPoint x="410" y="-750" />
              <mxPoint x="410" y="-790" />
            </Array>
          </mxGeometry>
        </mxCell>
        <mxCell id="VR9klW2G0f0JMLmI4JQ7-41" value="" style="endArrow=classic;html=1;exitX=1;exitY=0.5;exitDx=0;exitDy=0;entryX=0;entryY=0.667;entryDx=0;entryDy=0;entryPerimeter=0;" parent="1" source="VR9klW2G0f0JMLmI4JQ7-21" target="VR9klW2G0f0JMLmI4JQ7-35" edge="1">
          <mxGeometry width="50" height="50" relative="1" as="geometry">
            <mxPoint x="380" y="-740" as="sourcePoint" />
            <mxPoint x="475" y="-780" as="targetPoint" />
            <Array as="points">
              <mxPoint x="410" y="-750" />
              <mxPoint x="410" y="-710" />
            </Array>
          </mxGeometry>
        </mxCell>
        <mxCell id="VR9klW2G0f0JMLmI4JQ7-42" value="" style="endArrow=classic;html=1;exitX=1;exitY=0.5;exitDx=0;exitDy=0;entryX=0;entryY=0.5;entryDx=0;entryDy=0;" parent="1" source="VR9klW2G0f0JMLmI4JQ7-20" target="VR9klW2G0f0JMLmI4JQ7-23" edge="1">
          <mxGeometry width="50" height="50" relative="1" as="geometry">
            <mxPoint x="560" y="-460" as="sourcePoint" />
            <mxPoint x="610" y="-510" as="targetPoint" />
            <Array as="points">
              <mxPoint x="190" y="-510" />
              <mxPoint x="190" y="-630" />
            </Array>
          </mxGeometry>
        </mxCell>
        <mxCell id="VR9klW2G0f0JMLmI4JQ7-43" value="" style="endArrow=classic;html=1;exitX=1;exitY=0.5;exitDx=0;exitDy=0;entryX=0;entryY=0.5;entryDx=0;entryDy=0;" parent="1" source="VR9klW2G0f0JMLmI4JQ7-20" target="VR9klW2G0f0JMLmI4JQ7-24" edge="1">
          <mxGeometry width="50" height="50" relative="1" as="geometry">
            <mxPoint x="200" y="-500" as="sourcePoint" />
            <mxPoint x="260" y="-620" as="targetPoint" />
            <Array as="points" />
          </mxGeometry>
        </mxCell>
        <mxCell id="VR9klW2G0f0JMLmI4JQ7-44" value="" style="endArrow=classic;html=1;entryX=0;entryY=0.5;entryDx=0;entryDy=0;exitX=1;exitY=0.5;exitDx=0;exitDy=0;" parent="1" source="VR9klW2G0f0JMLmI4JQ7-20" target="VR9klW2G0f0JMLmI4JQ7-22" edge="1">
          <mxGeometry width="50" height="50" relative="1" as="geometry">
            <mxPoint x="190" y="-510" as="sourcePoint" />
            <mxPoint x="260" y="-500" as="targetPoint" />
            <Array as="points">
              <mxPoint x="190" y="-510" />
              <mxPoint x="190" y="-190" />
            </Array>
          </mxGeometry>
        </mxCell>
        <mxCell id="VR9klW2G0f0JMLmI4JQ7-45" value="" style="endArrow=classic;html=1;exitX=1;exitY=0.5;exitDx=0;exitDy=0;" parent="1" source="VR9klW2G0f0JMLmI4JQ7-23" edge="1">
          <mxGeometry width="50" height="50" relative="1" as="geometry">
            <mxPoint x="380" y="-740" as="sourcePoint" />
            <mxPoint x="460" y="-630" as="targetPoint" />
            <Array as="points">
              <mxPoint x="440" y="-630" />
              <mxPoint x="460" y="-630" />
            </Array>
          </mxGeometry>
        </mxCell>
        <mxCell id="VR9klW2G0f0JMLmI4JQ7-46" value="" style="endArrow=classic;html=1;exitX=1;exitY=0.5;exitDx=0;exitDy=0;entryX=0;entryY=0.5;entryDx=0;entryDy=0;" parent="1" source="VR9klW2G0f0JMLmI4JQ7-24" target="VR9klW2G0f0JMLmI4JQ7-36" edge="1">
          <mxGeometry width="50" height="50" relative="1" as="geometry">
            <mxPoint x="560" y="-450" as="sourcePoint" />
            <mxPoint x="610" y="-500" as="targetPoint" />
            <Array as="points">
              <mxPoint x="400" y="-510" />
              <mxPoint x="400" y="-550" />
            </Array>
          </mxGeometry>
        </mxCell>
        <mxCell id="VR9klW2G0f0JMLmI4JQ7-47" value="" style="endArrow=classic;html=1;entryX=0;entryY=0.5;entryDx=0;entryDy=0;" parent="1" target="VR9klW2G0f0JMLmI4JQ7-37" edge="1">
          <mxGeometry width="50" height="50" relative="1" as="geometry">
            <mxPoint x="370" y="-510" as="sourcePoint" />
            <mxPoint x="610" y="-500" as="targetPoint" />
            <Array as="points">
              <mxPoint x="400" y="-510" />
              <mxPoint x="400" y="-460" />
            </Array>
          </mxGeometry>
        </mxCell>
        <mxCell id="VR9klW2G0f0JMLmI4JQ7-48" value="" style="endArrow=classic;html=1;exitX=1;exitY=0.5;exitDx=0;exitDy=0;entryX=0;entryY=0.5;entryDx=0;entryDy=0;" parent="1" source="VR9klW2G0f0JMLmI4JQ7-22" target="VR9klW2G0f0JMLmI4JQ7-25" edge="1">
          <mxGeometry width="50" height="50" relative="1" as="geometry">
            <mxPoint x="560" y="-260" as="sourcePoint" />
            <mxPoint x="610" y="-310" as="targetPoint" />
            <Array as="points">
              <mxPoint x="370" y="-190" />
              <mxPoint x="370" y="-330" />
            </Array>
          </mxGeometry>
        </mxCell>
        <mxCell id="VR9klW2G0f0JMLmI4JQ7-49" value="" style="endArrow=classic;html=1;exitX=1;exitY=0.5;exitDx=0;exitDy=0;entryX=0;entryY=0.5;entryDx=0;entryDy=0;" parent="1" source="VR9klW2G0f0JMLmI4JQ7-22" target="VR9klW2G0f0JMLmI4JQ7-26" edge="1">
          <mxGeometry width="50" height="50" relative="1" as="geometry">
            <mxPoint x="560" y="-260" as="sourcePoint" />
            <mxPoint x="610" y="-310" as="targetPoint" />
            <Array as="points">
              <mxPoint x="370" y="-190" />
              <mxPoint x="370" y="-240" />
            </Array>
          </mxGeometry>
        </mxCell>
        <mxCell id="VR9klW2G0f0JMLmI4JQ7-50" value="" style="endArrow=classic;html=1;exitX=1;exitY=0.5;exitDx=0;exitDy=0;entryX=0;entryY=0.5;entryDx=0;entryDy=0;" parent="1" source="VR9klW2G0f0JMLmI4JQ7-22" target="VR9klW2G0f0JMLmI4JQ7-29" edge="1">
          <mxGeometry width="50" height="50" relative="1" as="geometry">
            <mxPoint x="560" y="-260" as="sourcePoint" />
            <mxPoint x="610" y="-310" as="targetPoint" />
            <Array as="points">
              <mxPoint x="370" y="-190" />
              <mxPoint x="370" y="-150" />
            </Array>
          </mxGeometry>
        </mxCell>
        <mxCell id="VR9klW2G0f0JMLmI4JQ7-51" value="" style="endArrow=classic;html=1;entryX=0;entryY=0.5;entryDx=0;entryDy=0;exitX=1;exitY=0.5;exitDx=0;exitDy=0;" parent="1" source="VR9klW2G0f0JMLmI4JQ7-22" target="VR9klW2G0f0JMLmI4JQ7-28" edge="1">
          <mxGeometry width="50" height="50" relative="1" as="geometry">
            <mxPoint x="370" y="-190" as="sourcePoint" />
            <mxPoint x="610" y="-310" as="targetPoint" />
            <Array as="points">
              <mxPoint x="370" y="-190" />
              <mxPoint x="370" y="-60" />
            </Array>
          </mxGeometry>
        </mxCell>
        <mxCell id="VR9klW2G0f0JMLmI4JQ7-52" value="" style="endArrow=classic;html=1;entryX=0;entryY=0.5;entryDx=0;entryDy=0;exitX=1;exitY=0.5;exitDx=0;exitDy=0;" parent="1" source="VR9klW2G0f0JMLmI4JQ7-22" target="VR9klW2G0f0JMLmI4JQ7-33" edge="1">
          <mxGeometry width="50" height="50" relative="1" as="geometry">
            <mxPoint x="370" y="-190" as="sourcePoint" />
            <mxPoint x="370" y="110" as="targetPoint" />
            <Array as="points">
              <mxPoint x="370" y="-190" />
              <mxPoint x="370" y="70" />
              <mxPoint x="620" y="70" />
              <mxPoint x="620" y="10" />
            </Array>
          </mxGeometry>
        </mxCell>
        <mxCell id="VR9klW2G0f0JMLmI4JQ7-53" value="" style="endArrow=classic;html=1;entryX=0;entryY=0.5;entryDx=0;entryDy=0;exitX=1;exitY=0.5;exitDx=0;exitDy=0;" parent="1" source="VR9klW2G0f0JMLmI4JQ7-22" target="VR9klW2G0f0JMLmI4JQ7-32" edge="1">
          <mxGeometry width="50" height="50" relative="1" as="geometry">
            <mxPoint x="370" y="-190" as="sourcePoint" />
            <mxPoint x="370" y="130" as="targetPoint" />
            <Array as="points">
              <mxPoint x="370" y="-190" />
              <mxPoint x="370" y="50" />
              <mxPoint x="600" y="50" />
              <mxPoint x="600" y="-80" />
            </Array>
          </mxGeometry>
        </mxCell>
        <mxCell id="VR9klW2G0f0JMLmI4JQ7-54" value="" style="endArrow=classic;html=1;entryX=0;entryY=0.5;entryDx=0;entryDy=0;exitX=1;exitY=0.5;exitDx=0;exitDy=0;" parent="1" source="VR9klW2G0f0JMLmI4JQ7-22" target="VR9klW2G0f0JMLmI4JQ7-31" edge="1">
          <mxGeometry width="50" height="50" relative="1" as="geometry">
            <mxPoint x="370" y="-190" as="sourcePoint" />
            <mxPoint x="690" y="-140" as="targetPoint" />
            <Array as="points">
              <mxPoint x="370" y="-190" />
              <mxPoint x="370" y="10" />
              <mxPoint x="590" y="10" />
              <mxPoint x="590" y="-180" />
            </Array>
          </mxGeometry>
        </mxCell>
        <mxCell id="VR9klW2G0f0JMLmI4JQ7-55" value="" style="endArrow=classic;html=1;entryX=0;entryY=0.5;entryDx=0;entryDy=0;exitX=1;exitY=0.5;exitDx=0;exitDy=0;" parent="1" source="VR9klW2G0f0JMLmI4JQ7-22" target="VR9klW2G0f0JMLmI4JQ7-27" edge="1">
          <mxGeometry width="50" height="50" relative="1" as="geometry">
            <mxPoint x="370" y="-190" as="sourcePoint" />
            <mxPoint x="770" y="-220" as="targetPoint" />
            <Array as="points">
              <mxPoint x="370" y="-190" />
              <mxPoint x="370" y="-390" />
              <mxPoint x="620" y="-390" />
              <mxPoint x="620" y="-280" />
            </Array>
          </mxGeometry>
        </mxCell>
        <mxCell id="JMjV8X4-DGBND67015FD-1" value="Hạch toán Tài sản" style="rounded=1;whiteSpace=wrap;html=1;" parent="1" vertex="1">
          <mxGeometry x="680" y="70" width="120" height="60" as="geometry" />
        </mxCell>
        <mxCell id="JMjV8X4-DGBND67015FD-2" value="Hạch toán Cam kết thu xếp vốn (Doanh nghiệp)" style="rounded=1;whiteSpace=wrap;html=1;" parent="1" vertex="1">
          <mxGeometry x="680" y="-413" width="120" height="60" as="geometry" />
        </mxCell>
        <mxCell id="VcqM1lQKu44zjIpKowZe-1" value="&lt;span style=&quot;font-size: 10pt ; line-height: 115% ; font-family: &amp;#34;times new roman&amp;#34; , serif&quot;&gt;Báo cáo về Sản Phẩm&lt;/span&gt;" style="rounded=1;whiteSpace=wrap;html=1;" vertex="1" parent="1">
          <mxGeometry x="630" y="-580" width="120" height="60" as="geometry" />
        </mxCell>
        <mxCell id="VcqM1lQKu44zjIpKowZe-2" value="&lt;span style=&quot;font-size: 9pt ; line-height: 115% ; font-family: &amp;#34;times new roman&amp;#34; , serif&quot;&gt;Báo cáo TỔNG&lt;/span&gt;" style="rounded=1;whiteSpace=wrap;html=1;" vertex="1" parent="1">
          <mxGeometry x="630" y="-500" width="120" height="60" as="geometry" />
        </mxCell>
        <mxCell id="VcqM1lQKu44zjIpKowZe-9" style="edgeStyle=orthogonalEdgeStyle;rounded=0;orthogonalLoop=1;jettySize=auto;html=1;entryX=0;entryY=0.5;entryDx=0;entryDy=0;" edge="1" parent="1" source="VcqM1lQKu44zjIpKowZe-5" target="VcqM1lQKu44zjIpKowZe-7">
          <mxGeometry relative="1" as="geometry" />
        </mxCell>
        <mxCell id="VcqM1lQKu44zjIpKowZe-10" style="edgeStyle=orthogonalEdgeStyle;rounded=0;orthogonalLoop=1;jettySize=auto;html=1;entryX=0;entryY=0.5;entryDx=0;entryDy=0;" edge="1" parent="1" source="VcqM1lQKu44zjIpKowZe-5" target="VcqM1lQKu44zjIpKowZe-8">
          <mxGeometry relative="1" as="geometry" />
        </mxCell>
        <mxCell id="VcqM1lQKu44zjIpKowZe-5" value="Quản lý danh mục" style="rounded=1;whiteSpace=wrap;html=1;" vertex="1" parent="1">
          <mxGeometry x="250" y="-930" width="120" height="60" as="geometry" />
        </mxCell>
        <mxCell id="VcqM1lQKu44zjIpKowZe-7" value="Đồng bộ dữ liệu danh mục T24" style="rounded=1;whiteSpace=wrap;html=1;" vertex="1" parent="1">
          <mxGeometry x="465" y="-970" width="120" height="60" as="geometry" />
        </mxCell>
        <mxCell id="VcqM1lQKu44zjIpKowZe-8" value="Quản lý các danh mục Droplist" style="rounded=1;whiteSpace=wrap;html=1;" vertex="1" parent="1">
          <mxGeometry x="465" y="-900" width="120" height="60" as="geometry" />
        </mxCell>
        <mxCell id="VcqM1lQKu44zjIpKowZe-11" value="Template LD" style="rounded=1;whiteSpace=wrap;html=1;" vertex="1" parent="1">
          <mxGeometry x="650" y="-910" width="120" height="60" as="geometry" />
        </mxCell>
        <mxCell id="VcqM1lQKu44zjIpKowZe-12" value="Template MG" style="rounded=1;whiteSpace=wrap;html=1;" vertex="1" parent="1">
          <mxGeometry x="650" y="-830" width="120" height="60" as="geometry" />
        </mxCell>
        <mxCell id="VcqM1lQKu44zjIpKowZe-13" value="Template ADDON" style="rounded=1;whiteSpace=wrap;html=1;" vertex="1" parent="1">
          <mxGeometry x="650" y="-750" width="120" height="60" as="geometry" />
        </mxCell>
        <mxCell id="VcqM1lQKu44zjIpKowZe-14" value="Template LD-ADDON" style="rounded=1;whiteSpace=wrap;html=1;" vertex="1" parent="1">
          <mxGeometry x="650" y="-670" width="120" height="60" as="geometry" />
        </mxCell>
      </root>
    </mxGraphModel>
  </diagram>
</mxfile>
